Place,Name,Sex,BirthDate,Age,Equipment,Division,BodyweightKg,WeightClassKg,Squat1Kg,Squat2Kg,Squat3Kg,Best3SquatKg,Bench1Kg,Bench2Kg,Bench3Kg,Best3BenchKg,Deadlift1Kg,Deadlift2Kg,Deadlift3Kg,Best3DeadliftKg,TotalKg,Event
1,John Nelson #1,M,,40,Wraps,M-M1,124.5,125,215,230,240,240,175,185,190,190,245,260,267.5,267.5,697.5,SBD
1,James Ingram,M,1973-10-04,49,Wraps,M-M2,89.1,90,205,-212.5,212.5,212.5,125,-132.5,132.5,132.5,220,225,227.5,227.5,572.5,SBD
1,Jamie Gorrian,M,,47,Wraps,M-M2,132.55,140,240,250,-260,250,152.5,165,-175,165,235,250,260,260,675,SBD
1,Alastair Reid,M,,54,Wraps,M-M3,137.35,140,205,220,-225,220,140,155,165,165,220,240,-250,240,625,SBD
2,Louis Kuhn,M,,53,Wraps,M-M3,132.7,140,155,160,-165,160,-140,-140,140,140,200,205,-210,205,505,SBD
1,Andrew Flavell,M,,56,Wraps,M-M4,114.35,125,245,255,-260,255,140,150,155,155,240,-260,260,260,670,SBD
1,Gavin Thomas,M,1983-11-18,39,Wraps,M-O,88.7,90,175,195,205,205,160,170,185,185,200,220,240,240,630,SBD
2,Tony Sheppard,M,1990-01-17,33,Wraps,M-O,86.1,90,215,-225,-225,215,145,152.5,-160,152.5,240,250,-260,250,617.5,SBD
3,Stuart Hope,M,1995-06-15,27,Wraps,M-O,89.6,90,-220,220,-230,220,157.5,-165,-165,157.5,210,220,225,225,602.5,SBD
4,Mark Collins #4,M,1984-02-05,39,Wraps,M-O,89.25,90,195,-205,215,215,110,115,120,120,200,210,220,220,555,SBD
5,Chris Woodward-Clark,M,1990-06-24,32,Wraps,M-O,87.75,90,127.5,-135,-135,127.5,120,127.5,132.5,132.5,190,-205,-205,190,450,SBD
1,Robbie Stewart,M,1986-09-07,36,Wraps,M-O,93.15,100,245,255,265,265,155,165,172.5,172.5,290,307.5,-312.5,307.5,745,SBD
2,Robert Hazelton,M,1984-07-16,,Wraps,M-O,99.85,100,265,280,-295,280,170,180,-187.5,180,260,280,-290,280,740,SBD
3,Stuart Ramsay,M,1991-07-01,31,Wraps,M-O,98.2,100,255,265,-275,265,150,162.5,170,170,290,-305,,290,725,SBD
4,Scott Tawse,M,1993-03-12,30,Wraps,M-O,99.4,100,205,-210,210,210,130,140,145,145,240,245,-247.5,245,600,SBD
5,Paul Wordley,M,1987-09-11,35,Wraps,M-O,90.15,100,190,200,205,205,130,-140,-145,130,190,210,225,225,560,SBD
1,Colin Baxter,M,1982-11-09,40,Wraps,M-O,109.1,110,-285,295,305,305,180,190,195,195,280,300,,300,800,SBD
2,Stuart Walls,M,1986-09-10,36,Wraps,M-O,106.25,110,255,-275,275,275,170,182.5,190,190,265,-272.5,-272.5,265,730,SBD
3,Philip Bird,M,1987-07-28,35,Wraps,M-O,106.45,110,240,260,-270,260,175,180,-185,180,280,-295,-295,280,720,SBD
4,Richard Page,M,1987-11-09,35,Wraps,M-O,104.75,110,255,265,-270,265,-120,130,135,135,275,290,-300,290,690,SBD
5,Scott Graham #4,M,1998-08-24,24,Wraps,M-O,104.3,110,225,-240,240,240,130,142.5,150,150,260,270,280,280,670,SBD
1,Harvey Macaulay,M,,29,Wraps,M-O,118.25,125,265,282.5,297.5,297.5,160,170,175,175,285,295,305,305,777.5,SBD
2,Ross Kincaid,M,,29,Wraps,M-O,124.35,125,285,295,300,300,170,180,187.5,187.5,260,267.5,272.5,272.5,760,SBD
3,John Sutherland,M,,,Wraps,M-O,121.9,125,270,280,-290,280,185,195,207.5,207.5,250,260,-270,260,747.5,SBD
4,Fraser Love,M,,36,Wraps,M-O,124.55,125,270,285,-300,285,152.5,-160,160,160,260,-275,275,275,720,SBD
5,Liam Goldie,M,,25,Wraps,M-O,124.1,125,245,257.5,265,265,130,140,147.5,147.5,260,272.5,280,280,692.5,SBD
DQ,Connor McKechnie,M,,24,Wraps,M-O,116.1,125,-270,-270,-270,,175,-187.5,-187.5,175,300,325,330,330,,SBD
1,Matthew Campbell #1,M,,,Wraps,M-O,133.15,140,315,345,-350,345,210,220,-227.5,220,300,320,-335,320,885,SBD
2,Alasdair MacLeod #1,M,,33,Wraps,M-O,130.45,140,280,310,315,315,160,170,-175,170,260,-285,-285,260,745,SBD
3,Cameron Maclennan,M,,29,Wraps,M-O,136.3,140,225,230,-235,230,115,122.5,-125,122.5,225,-235,,225,577.5,SBD
1,David Clarke #1,M,1988-01-22,35,Wraps,M-O,150.3,140+,265,285,300,300,180,190,200,200,260,280,300,300,800,SBD
1,Ronnie Stephen,M,,,Raw,M-O,113.5,125,,,,,140,150,157.5,157.5,200,225,242.5,242.5,400,BD
1,Fraser Friseal,M,,44,Raw,M-M1,119.55,125,,,,,135,145,150,150,,,,,150,B
1,Neil Stewart,M,1975-12-18,47,Raw,M-M2,98.4,100,,,,,185,-200,-200,185,,,,,185,B
DQ,Robert Caldwell,M,,56,Raw,M-M4,113.05,125,,,,,,,,,-250,-260,,,,D
1,Anita Wysokińska,F,,30,Raw,F-O,68.25,75,130,140,-155,140,67.5,70,72.5,72.5,140,150,160,160,372.5,SBD
1,Jodie Barrett,F,,22,Wraps,F-J,54.35,56,80,-85,85,85,37.5,42.5,45,45,90,95,-102.5,95,225,SBD
1,Katie McKnight,F,,21,Wraps,F-J,84.4,90,95,105,110,110,60,65,70,70,97.5,107.5,115,115,295,SBD
1,Wendy Stewart,F,,44,Wraps,F-M1,71.6,75,127.5,137.5,-150,137.5,-70,72.5,-75,72.5,155,-160,,155,365,SBD
DQ,Julie Rivier,F,,42,Wraps,F-M1,71.4,75,-80,-80,-80,,30,32.5,35,35,105,110,117.5,117.5,,SBD
1,Susan Wilson #2,F,,55,Wraps,F-M4,79.95,82.5,80,85,90,90,-47.5,47.5,50,50,115,120,125,125,265,SBD
1,Tanya Cowie,F,,28,Wraps,F-O,58.15,60,147.5,152.5,-155,152.5,57.5,60,-62.5,60,150,157.5,162.5,162.5,375,SBD
2,Di Fraser,F,,32,Wraps,F-O,59.1,60,85,90,-95,90,50,55,57.5,57.5,125,135,142.5,142.5,290,SBD
1,Aimie Caldwell,F,,26,Raw,F-O,65.8,67.5,130,140,150,150,80,87.5,-92.5,87.5,150,165,175,175,412.5,SBD
1,Gemma Brown,F,,38,Wraps,F-O,66.25,67.5,-122.5,-127.5,127.5,127.5,50,52.5,55,55,135,145,150,150,332.5,SBD
2,Monica Melero,F,,34,Wraps,F-O,64.75,67.5,102.5,-107.5,-110,102.5,52.5,57.5,-60,57.5,122.5,130,135,135,295,SBD
1,Aimee Brown,F,,27,Wraps,F-O,74.95,75,162.5,170,175,175,70,77.5,80,80,160,170,175,175,430,SBD
2,Courtney Richards,F,,31,Wraps,F-O,68.5,75,120,130,140,140,50,60,-62.5,60,130,142.5,150,150,350,SBD
1,Samantha Cunningham,F,,29,Wraps,F-O,81.6,82.5,160,170,,170,67.5,72.5,75,75,177.5,190,200,200,445,SBD
2,Nicola Buchan,F,,33,Wraps,F-O,82.1,82.5,130,140,-150,140,70,75,-77.5,75,160,170,180,180,395,SBD
3,Christie Herbert,F,,27,Wraps,F-O,80.45,82.5,125,132.5,-140,132.5,70,75,-80,75,150,160,-165,160,367.5,SBD
1,Gemma Young,F,,34,Wraps,F-O,83.8,90,200,215,222.5,222.5,92.5,97.5,102.5,102.5,200,215,222.5,222.5,547.5,SBD
1,Carolynne Robertson,F,,32,Wraps,F-O,114.95,110+,172.5,175,182.5,182.5,80,90,-95,90,170,185,195,195,467.5,SBD
2,Eilidh Mackay,F,,26,Wraps,F-O,113.25,110+,130,140,147.5,147.5,60,65,72.5,72.5,160,175,-182.5,175,395,SBD
1,Evangeline van Wyk,F,,14,Wraps,F-T1,66.75,67.5,45,50,57.5,57.5,30,35,-40,35,65,70,75,75,167.5,SBD
1,Anastasia Papas,F,,31,Raw,F-O,108.75,110,,,,,67.5,70,75,75,165,172.5,177.5,177.5,252.5,BD
1,Diane Day,F,,33,Raw,F-O,74.9,75,,,,,82.5,90,95,95,,,,,95,B
1,Alyson Smith,F,,36,Raw,F-O,114.2,110+,,,,,112.5,120,122.5,122.5,,,,,122.5,B
1,Tyler Smith #4,M,,20,Wraps,M-J,71.7,75,130,145,157.5,157.5,75,82.5,85,85,170,190,-197.5,190,432.5,SBD
1,Scott Cardwell,M,,40,Wraps,M-M1,88.55,90,-127.5,-127.5,127.5,127.5,-87.5,90,-95,90,167.5,177.5,182.5,182.5,400,SBD
1,Rory May,M,,55,Wraps,M-M4,74.5,75,170,180,190,190,102.5,110,-117.5,110,175,187.5,-197.5,187.5,487.5,SBD
1,Tommy McCarthur,M,,,Wraps,M-O,67.35,67.5,-165,165,-180,165,105,115,122.5,122.5,220,230,235,235,522.5,SBD
1,Steven Macdonald,M,,28,Wraps,M-O,73.5,75,175,182.5,187.5,187.5,135,-140,140,140,210,220,227.5,227.5,555,SBD
2,Myles Dowson,M,,24,Wraps,M-O,74.65,75,170,180,190,190,90,95,-100,95,200,215,-225,215,500,SBD
1,Dean McVie,M,,32,Raw,M-O,82.15,82.5,250,260,270,270,150,160,165,165,280,300,305,305,740,SBD
2,Andrew Smith #2,M,,32,Wraps,M-O,81.7,82.5,227.5,245,-250,245,155,165,167.5,167.5,245,265,-272.5,265,677.5,SBD
3,Jack May #2,M,,27,Wraps,M-O,80.9,82.5,185,200,-207.5,200,130,142.5,-147.5,142.5,200,215,-225,215,557.5,SBD
4,Thomas Long,M,,33,Wraps,M-O,79.7,82.5,170,180,187.5,187.5,90,100,-107.5,100,175,200,210,210,497.5,SBD
1,Michael McKnight,M,,17,Wraps,M-T2,82.5,82.5,105,115,122.5,122.5,65,72.5,-77.5,72.5,140,-150,155,155,350,SBD
DQ,Euan Devlin,M,,16,Wraps,M-T2,75.5,82.5,-160,160,-167.5,160,-97.5,-102.5,-102.5,,-215,,,,,SBD
1,Ritchie Simpson,M,,19,Wraps,M-T3,74.55,75,155,165,170,170,120,130,135,135,180,195,205,205,510,SBD
2,Sean Fleming,M,,19,Wraps,M-T3,74.6,75,-115,120,130,130,85,90,95,95,175,185,200,200,425,SBD
1,Andrew Donaghy,M,,36,Multi-ply,M-O-E,81,82.5,175,182.5,190,190,110,120,-127.5,120,190,210,220,220,530,SBD
1,Graham Dowers,M,,58,Raw,M-M4,67,67.5,,,,,125,-138,-138,125,190,200,210,210,335,BD
1,Jason Mowatt,M,,31,Raw,M-O,86.75,90,,,,,152.5,-160,160,160,,,,,160,B
